lab/lab3/lab3part4/simulation/qsim/part4.msim.vcd
$comment
	File created using the following command:
		vcd file part4.msim.vcd -direction
$end
$date
	Tue Nov 19 22:01:25 2019
$end
$version
	ModelSim Version 10.1d
$end
$timescale
	1ps
$end
$scope module part4_vlg_vec_tst $end
$var reg 1 ! D $end
$var reg 1 " clk $end
$var wire 1 # Q1 $end
$var wire 1 $ Q2 $end
$var wire 1 % Q3 $end
$var wire 1 & sampler $end
$scope module i1 $end
$var wire 1 ' gnd $end
$var wire 1 ( vcc $end
$var wire 1 ) unknown $end
$var tri1 1 * devclrn $end
$var tri1 1 + devpor $end
$var tri1 1 , devoe $end
$var wire 1 - Q1~output_o $end
$var wire 1 . Q2~output_o $end
$var wire 1 / Q3~output_o $end
$var wire 1 0 D~input_o $end
$var wire 1 1 clk~input_o $end
$var wire 1 2 clk~inputclkctrl_outclk $end
$var wire 1 3 p1|q~combout $end
$var wire 1 4 p2|q~feeder_combout $end
$var wire 1 5 p2|q~q $end
$var wire 1 6 p3|q~feeder_combout $end
$var wire 1 7 p3|q~q $end
$upscope $end
$upscope $end
$enddefinitions $end
#0
$dumpvars
0!
0"
x#
0$
0%
x&
0'
1(
x)
1*
1+
1,
x-
0.
0/
00
01
02
x3
04
05
06
07
$end
#20000
1!
10
0&
16
14
#40000
0!
00
1&
06
04
#60000
1!
10
0&
16
14
#65000
1"
11
12
1&
13
1-
1#
15
1.
1$
#80000
0!
00
0&
06
04
03
0-
0#
#100000
1!
10
1&
16
14
13
1-
1#
#120000
0!
00
0&
06
04
03
0-
0#
#130000
0"
01
02
1&
#140000
1!
10
0&
16
14
#160000
0!
00
1&
06
04
#180000
1!
10
0&
16
14
#195000
1"
11
12
1&
13
1-
1#
#200000
0!
00
0&
06
04
03
0-
0#
#220000
1!
10
1&
16
14
13
1-
1#
#240000
0!
00
0&
06
04
03
0-
0#
#260000
0"
1!
01
10
02
1&
16
14
#280000
0!
00
0&
06
04
#300000
1!
10
1&
16
14
#320000
0!
00
0&
06
04
#325000
1"
11
12
1&
05
0.
0$
#340000
1!
10
0&
16
14
13
1-
1#
#360000
0!
00
1&
06
04
03
0-
0#
#380000
1!
10
0&
16
14
13
1-
1#
#390000
0"
01
02
1&
17
1/
1%
#400000
0!
00
0&
06
04
#420000
1!
10
1&
16
14
#440000
0!
00
0&
06
04
#455000
1"
11
12
1&
03
0-
0#
#460000
1!
10
0&
16
14
13
1-
1#
#480000
0!
00
1&
06
04
03
0-
0#
#500000
1!
10
0&
16
14
13
1-
1#
#520000
0"
0!
01
00
02
1&
06
04
#540000
1!
10
0&
16
14
#560000
0!
00
1&
06
04
#580000
1!
10
0&
16
14
#585000
1"
11
12
1&
15
1.
1$
#600000
0!
00
0&
06
04
03
0-
0#
#620000
1!
10
1&
16
14
13
1-
1#
#640000
0!
00
0&
06
04
03
0-
0#
#650000
0"
01
02
1&
07
0/
0%
#660000
1!
10
0&
16
14
#680000
0!
00
1&
06
04
#700000
1!
10
0&
16
14
#715000
1"
11
12
1&
13
1-
1#
#720000
0!
00
0&
06
04
03
0-
0#
#740000
1!
10
1&
16
14
13
1-
1#
#760000
0!
00
0&
06
04
03
0-
0#
#780000
0"
1!
01
10
02
1&
16
14
#800000
0!
00
0&
06
04
#820000
1!
10
1&
16
14
#840000
0!
00
0&
06
04
#845000
1"
11
12
1&
05
0.
0$
#860000
1!
10
0&
16
14
13
1-
1#
#880000
0!
00
1&
06
04
03
0-
0#
#900000
1!
10
0&
16
14
13
1-
1#
#910000
0"
01
02
1&
17
1/
1%
#920000
0!
00
0&
06
04
#940000
1!
10
1&
16
14
#960000
0!
00
0&
06
04
#975000
1"
11
12
1&
03
0-
0#
#980000
1!
10
0&
16
14
13
1-
1#
