lab/lab3/lab3_part3/simulation/qsim/lab3_part3.msim.vcd
$comment
	File created using the following command:
		vcd file lab3_part3.msim.vcd -direction
$end
$date
	Sat Nov 16 18:59:02 2019
$end
$version
	ModelSim Version 10.1d
$end
$timescale
	1ps
$end
$scope module lab3_part3_vlg_vec_tst $end
$var reg 1 ! clk $end
$var reg 1 " d $end
$var wire 1 # q $end
$var wire 1 $ qn $end
$var wire 1 % sampler $end
$scope module i1 $end
$var wire 1 & gnd $end
$var wire 1 ' vcc $end
$var wire 1 ( unknown $end
$var tri1 1 ) devclrn $end
$var tri1 1 * devpor $end
$var tri1 1 + devoe $end
$var wire 1 , q~output_o $end
$var wire 1 - qn~output_o $end
$var wire 1 . d~input_o $end
$var wire 1 / clk~input_o $end
$var wire 1 0 slave|Qa~0_combout $end
$var wire 1 1 slave|Qb~0_combout $end
$upscope $end
$upscope $end
$enddefinitions $end
#0
$dumpvars
0!
1"
x#
x$
x%
0&
1'
x(
1)
1*
1+
x,
x-
1.
0/
x0
x1
$end
#30000
0"
0.
0%
#50000
1!
1/
1%
10
11
0,
1-
0#
1$
#60000
1"
1.
0%
00
1,
1#
01
0-
0$
#90000
0"
0.
1%
10
11
0,
1-
0#
1$
#100000
0!
0/
0%
#120000
1"
1.
1%
#150000
1!
1/
0%
00
1,
1#
01
0-
0$
#180000
0"
0.
1%
10
11
0,
1-
0#
1$
#200000
0!
0/
0%
#210000
1"
1.
1%
#250000
1!
1/
0%
00
1,
1#
01
0-
0$
#270000
0"
0.
1%
10
11
0,
1-
0#
1$
#300000
0!
1"
0/
1.
0%
#330000
0"
0.
1%
#350000
1!
1/
0%
#360000
1"
1.
1%
00
1,
1#
01
0-
0$
#400000
0!
0/
0%
#420000
0"
0.
1%
#450000
1!
1/
0%
10
11
0,
1-
0#
1$
#480000
1"
1.
1%
00
1,
1#
01
0-
0$
#500000
0!
0/
0%
#510000
0"
0.
1%
#540000
1"
1.
0%
#550000
1!
1/
1%
#570000
0"
0.
0%
10
11
0,
1-
0#
1$
#600000
0!
1"
0/
1.
1%
#630000
0"
0.
0%
#650000
1!
1/
1%
#690000
1"
1.
0%
00
1,
1#
01
0-
0$
#700000
0!
0/
1%
#750000
0"
1!
0.
1/
0%
10
11
0,
1-
0#
1$
#800000
0!
0/
1%
#810000
1"
1.
0%
#840000
0"
0.
1%
#850000
1!
1/
0%
#870000
1"
1.
1%
00
1,
1#
01
0-
0$
#900000
0!
0/
0%
#930000
0"
0.
1%
#950000
1!
1/
0%
10
11
0,
1-
0#
1$
#960000
1"
1.
1%
00
1,
1#
01
0-
0$
#990000
0"
0.
0%
10
11
0,
1-
0#
1$
