lab/lab4/lab6_24/simulation/qsim/full_adder.msim.vcd
$comment
	File created using the following command:
		vcd file full_adder.msim.vcd -direction
$end
$date
	Wed Nov 27 16:33:09 2019
$end
$version
	ModelSim Version 10.1d
$end
$timescale
	1ps
$end
$scope module part2_another_vlg_vec_tst $end
$var reg 2 ! KEY [1:0] $end
$var reg 17 " SW [16:0] $end
$var wire 1 # HEX0 [6] $end
$var wire 1 $ HEX0 [5] $end
$var wire 1 % HEX0 [4] $end
$var wire 1 & HEX0 [3] $end
$var wire 1 ' HEX0 [2] $end
$var wire 1 ( HEX0 [1] $end
$var wire 1 ) HEX0 [0] $end
$var wire 1 * HEX1 [6] $end
$var wire 1 + HEX1 [5] $end
$var wire 1 , HEX1 [4] $end
$var wire 1 - HEX1 [3] $end
$var wire 1 . HEX1 [2] $end
$var wire 1 / HEX1 [1] $end
$var wire 1 0 HEX1 [0] $end
$var wire 1 1 HEX4 [6] $end
$var wire 1 2 HEX4 [5] $end
$var wire 1 3 HEX4 [4] $end
$var wire 1 4 HEX4 [3] $end
$var wire 1 5 HEX4 [2] $end
$var wire 1 6 HEX4 [1] $end
$var wire 1 7 HEX4 [0] $end
$var wire 1 8 HEX5 [6] $end
$var wire 1 9 HEX5 [5] $end
$var wire 1 : HEX5 [4] $end
$var wire 1 ; HEX5 [3] $end
$var wire 1 < HEX5 [2] $end
$var wire 1 = HEX5 [1] $end
$var wire 1 > HEX5 [0] $end
$var wire 1 ? HEX6 [6] $end
$var wire 1 @ HEX6 [5] $end
$var wire 1 A HEX6 [4] $end
$var wire 1 B HEX6 [3] $end
$var wire 1 C HEX6 [2] $end
$var wire 1 D HEX6 [1] $end
$var wire 1 E HEX6 [0] $end
$var wire 1 F HEX7 [6] $end
$var wire 1 G HEX7 [5] $end
$var wire 1 H HEX7 [4] $end
$var wire 1 I HEX7 [3] $end
$var wire 1 J HEX7 [2] $end
$var wire 1 K HEX7 [1] $end
$var wire 1 L HEX7 [0] $end
$var wire 1 M LEDG [8] $end
$var wire 1 N LEDR [7] $end
$var wire 1 O LEDR [6] $end
$var wire 1 P LEDR [5] $end
$var wire 1 Q LEDR [4] $end
$var wire 1 R LEDR [3] $end
$var wire 1 S LEDR [2] $end
$var wire 1 T LEDR [1] $end
$var wire 1 U LEDR [0] $end
$var wire 1 V sampler $end
$scope module i1 $end
$var wire 1 W gnd $end
$var wire 1 X vcc $end
$var wire 1 Y unknown $end
$var tri1 1 Z devclrn $end
$var tri1 1 [ devpor $end
$var tri1 1 \ devoe $end
$var wire 1 ] LEDR[0]~output_o $end
$var wire 1 ^ LEDR[1]~output_o $end
$var wire 1 _ LEDR[2]~output_o $end
$var wire 1 ` LEDR[3]~output_o $end
$var wire 1 a LEDR[4]~output_o $end
$var wire 1 b LEDR[5]~output_o $end
$var wire 1 c LEDR[6]~output_o $end
$var wire 1 d LEDR[7]~output_o $end
$var wire 1 e LEDG[8]~output_o $end
$var wire 1 f HEX7[0]~output_o $end
$var wire 1 g HEX7[1]~output_o $end
$var wire 1 h HEX7[2]~output_o $end
$var wire 1 i HEX7[3]~output_o $end
$var wire 1 j HEX7[4]~output_o $end
$var wire 1 k HEX7[5]~output_o $end
$var wire 1 l HEX7[6]~output_o $end
$var wire 1 m HEX6[0]~output_o $end
$var wire 1 n HEX6[1]~output_o $end
$var wire 1 o HEX6[2]~output_o $end
$var wire 1 p HEX6[3]~output_o $end
$var wire 1 q HEX6[4]~output_o $end
$var wire 1 r HEX6[5]~output_o $end
$var wire 1 s HEX6[6]~output_o $end
$var wire 1 t HEX5[0]~output_o $end
$var wire 1 u HEX5[1]~output_o $end
$var wire 1 v HEX5[2]~output_o $end
$var wire 1 w HEX5[3]~output_o $end
$var wire 1 x HEX5[4]~output_o $end
$var wire 1 y HEX5[5]~output_o $end
$var wire 1 z HEX5[6]~output_o $end
$var wire 1 { HEX4[0]~output_o $end
$var wire 1 | HEX4[1]~output_o $end
$var wire 1 } HEX4[2]~output_o $end
$var wire 1 ~ HEX4[3]~output_o $end
$var wire 1 !! HEX4[4]~output_o $end
$var wire 1 "! HEX4[5]~output_o $end
$var wire 1 #! HEX4[6]~output_o $end
$var wire 1 $! HEX1[0]~output_o $end
$var wire 1 %! HEX1[1]~output_o $end
$var wire 1 &! HEX1[2]~output_o $end
$var wire 1 '! HEX1[3]~output_o $end
$var wire 1 (! HEX1[4]~output_o $end
$var wire 1 )! HEX1[5]~output_o $end
$var wire 1 *! HEX1[6]~output_o $end
$var wire 1 +! HEX0[0]~output_o $end
$var wire 1 ,! HEX0[1]~output_o $end
$var wire 1 -! HEX0[2]~output_o $end
$var wire 1 .! HEX0[3]~output_o $end
$var wire 1 /! HEX0[4]~output_o $end
$var wire 1 0! HEX0[5]~output_o $end
$var wire 1 1! HEX0[6]~output_o $end
$var wire 1 2! KEY[1]~input_o $end
$var wire 1 3! SW[8]~input_o $end
$var wire 1 4! u0|Areg[0]~feeder_combout $end
$var wire 1 5! KEY[0]~input_o $end
$var wire 1 6! SW[0]~input_o $end
$var wire 1 7! u0|u0|S[0]~0_combout $end
$var wire 1 8! SW[16]~input_o $end
$var wire 1 9! u0|addsub_r~q $end
$var wire 1 :! u0|u0|C~0_combout $end
$var wire 1 ;! SW[1]~input_o $end
$var wire 1 <! u0|u0|C~1_combout $end
$var wire 1 =! SW[9]~input_o $end
$var wire 1 >! u0|u0|C[2]~2_combout $end
$var wire 1 ?! SW[10]~input_o $end
$var wire 1 @! SW[2]~input_o $end
$var wire 1 A! u0|u0|S[2]~1_combout $end
$var wire 1 B! SW[3]~input_o $end
$var wire 1 C! u0|Breg[3]~feeder_combout $end
$var wire 1 D! SW[11]~input_o $end
$var wire 1 E! u0|u0|C[3]~3_combout $end
$var wire 1 F! u0|u0|S[3]~2_combout $end
$var wire 1 G! SW[4]~input_o $end
$var wire 1 H! u0|Breg[4]~feeder_combout $end
$var wire 1 I! SW[12]~input_o $end
$var wire 1 J! u0|u0|C[4]~4_combout $end
$var wire 1 K! u0|u0|S[4]~3_combout $end
$var wire 1 L! SW[13]~input_o $end
$var wire 1 M! u0|Areg[5]~feeder_combout $end
$var wire 1 N! SW[5]~input_o $end
$var wire 1 O! u0|u0|C[5]~5_combout $end
$var wire 1 P! u0|u0|S[5]~4_combout $end
$var wire 1 Q! SW[6]~input_o $end
$var wire 1 R! u0|Breg[6]~feeder_combout $end
$var wire 1 S! SW[14]~input_o $end
$var wire 1 T! u0|Areg[6]~feeder_combout $end
$var wire 1 U! u0|u0|C[6]~6_combout $end
$var wire 1 V! u0|u0|S[6]~5_combout $end
$var wire 1 W! u0|u0|C[7]~7_combout $end
$var wire 1 X! SW[7]~input_o $end
$var wire 1 Y! u0|Breg[7]~feeder_combout $end
$var wire 1 Z! SW[15]~input_o $end
$var wire 1 [! u0|Areg[7]~feeder_combout $end
$var wire 1 \! u0|u0|S[7]~6_combout $end
$var wire 1 ]! u0|u0|carryout~0_combout $end
$var wire 1 ^! u0|over_flow~0_combout $end
$var wire 1 _! u0|overflow~q $end
$var wire 1 `! u1|WideOr6~0_combout $end
$var wire 1 a! u1|WideOr5~0_combout $end
$var wire 1 b! u1|WideOr4~0_combout $end
$var wire 1 c! u1|WideOr3~0_combout $end
$var wire 1 d! u1|WideOr2~0_combout $end
$var wire 1 e! u1|WideOr1~0_combout $end
$var wire 1 f! u1|WideOr0~0_combout $end
$var wire 1 g! u2|WideOr6~0_combout $end
$var wire 1 h! u2|WideOr5~0_combout $end
$var wire 1 i! u2|WideOr4~0_combout $end
$var wire 1 j! u2|WideOr3~0_combout $end
$var wire 1 k! u2|WideOr2~0_combout $end
$var wire 1 l! u2|WideOr1~0_combout $end
$var wire 1 m! u2|WideOr0~0_combout $end
$var wire 1 n! u3|WideOr6~0_combout $end
$var wire 1 o! u3|WideOr5~0_combout $end
$var wire 1 p! u3|WideOr4~0_combout $end
$var wire 1 q! u3|WideOr3~0_combout $end
$var wire 1 r! u3|WideOr2~0_combout $end
$var wire 1 s! u3|WideOr1~0_combout $end
$var wire 1 t! u3|WideOr0~0_combout $end
$var wire 1 u! u4|WideOr6~0_combout $end
$var wire 1 v! u4|WideOr5~0_combout $end
$var wire 1 w! u4|WideOr4~0_combout $end
$var wire 1 x! u4|WideOr3~0_combout $end
$var wire 1 y! u4|WideOr2~0_combout $end
$var wire 1 z! u4|WideOr1~0_combout $end
$var wire 1 {! u4|WideOr0~0_combout $end
$var wire 1 |! u5|WideOr6~0_combout $end
$var wire 1 }! u5|WideOr5~0_combout $end
$var wire 1 ~! u5|WideOr4~0_combout $end
$var wire 1 !" u5|WideOr3~0_combout $end
$var wire 1 "" u5|WideOr2~0_combout $end
$var wire 1 #" u5|WideOr1~0_combout $end
$var wire 1 $" u5|WideOr0~0_combout $end
$var wire 1 %" u6|WideOr6~0_combout $end
$var wire 1 &" u6|WideOr5~0_combout $end
$var wire 1 '" u6|WideOr4~0_combout $end
$var wire 1 (" u6|WideOr3~0_combout $end
$var wire 1 )" u6|WideOr2~0_combout $end
$var wire 1 *" u6|WideOr1~0_combout $end
$var wire 1 +" u6|WideOr0~0_combout $end
$var wire 1 ," u0|u0|S [7] $end
$var wire 1 -" u0|u0|S [6] $end
$var wire 1 ." u0|u0|S [5] $end
$var wire 1 /" u0|u0|S [4] $end
$var wire 1 0" u0|u0|S [3] $end
$var wire 1 1" u0|u0|S [2] $end
$var wire 1 2" u0|u0|S [1] $end
$var wire 1 3" u0|u0|S [0] $end
$var wire 1 4" u0|Sreg [7] $end
$var wire 1 5" u0|Sreg [6] $end
$var wire 1 6" u0|Sreg [5] $end
$var wire 1 7" u0|Sreg [4] $end
$var wire 1 8" u0|Sreg [3] $end
$var wire 1 9" u0|Sreg [2] $end
$var wire 1 :" u0|Sreg [1] $end
$var wire 1 ;" u0|Sreg [0] $end
$var wire 1 <" u0|H [7] $end
$var wire 1 =" u0|H [6] $end
$var wire 1 >" u0|H [5] $end
$var wire 1 ?" u0|H [4] $end
$var wire 1 @" u0|H [3] $end
$var wire 1 A" u0|H [2] $end
$var wire 1 B" u0|H [1] $end
$var wire 1 C" u0|H [0] $end
$var wire 1 D" u0|Breg [7] $end
$var wire 1 E" u0|Breg [6] $end
$var wire 1 F" u0|Breg [5] $end
$var wire 1 G" u0|Breg [4] $end
$var wire 1 H" u0|Breg [3] $end
$var wire 1 I" u0|Breg [2] $end
$var wire 1 J" u0|Breg [1] $end
$var wire 1 K" u0|Breg [0] $end
$var wire 1 L" u0|Areg [7] $end
$var wire 1 M" u0|Areg [6] $end
$var wire 1 N" u0|Areg [5] $end
$var wire 1 O" u0|Areg [4] $end
$var wire 1 P" u0|Areg [3] $end
$var wire 1 Q" u0|Areg [2] $end
$var wire 1 R" u0|Areg [1] $end
$var wire 1 S" u0|Areg [0] $end
$upscope $end
$upscope $end
$enddefinitions $end
#0
$dumpvars
b0 !
b1011110100101011 "
0w!
0x!
0y!
0z!
1{!
0|!
0}!
0~!
0!"
0""
0#"
0$"
0%"
0&"
0'"
0("
0)"
0*"
0+"
z3"
02"
z1"
z0"
z/"
z."
z-"
z,"
0;"
0:"
09"
08"
07"
06"
05"
04"
zC"
0B"
zA"
z@"
z?"
z>"
z="
z<"
0K"
0J"
0I"
0H"
0G"
0F"
0E"
0D"
0S"
0R"
0Q"
0P"
0O"
0N"
0M"
0L"
0)
0(
0'
0&
0%
0$
1#
00
0/
0.
0-
0,
0+
1*
17
16
05
04
03
02
01
0>
0=
1<
0;
0:
19
08
1E
0D
0C
0B
0A
1@
0?
1L
1K
0J
0I
0H
0G
0F
0M
0U
0T
0S
0R
0Q
0P
0O
0N
xV
0W
1X
xY
1Z
1[
1\
0]
0^
0_
0`
0a
0b
0c
0d
0e
1f
1g
0h
0i
0j
0k
0l
1m
0n
0o
0p
0q
1r
0s
0t
0u
1v
0w
0x
1y
0z
1{
1|
0}
0~
0!!
0"!
0#!
0$!
0%!
0&!
0'!
0(!
0)!
1*!
0+!
0,!
0-!
0.!
0/!
00!
11!
02!
13!
14!
05!
16!
07!
08!
09!
0:!
1;!
0<!
0=!
0>!
1?!
0@!
0A!
1B!
1C!
1D!
0E!
0F!
0G!
0H!
1I!
0J!
0K!
1L!
1M!
1N!
0O!
0P!
0Q!
0R!
0S!
0T!
0U!
0V!
0W!
0X!
0Y!
1Z!
1[!
0\!
0]!
1^!
0_!
1`!
1a!
0b!
0c!
0d!
0e!
1f!
1g!
0h!
0i!
0j!
0k!
1l!
1m!
0n!
0o!
1p!
0q!
0r!
1s!
1t!
1u!
1v!
$end
#75000
b10 !
12!
0V
#100000
b11011110100101011 "
b10011110100101011 "
b10111110100101011 "
b10101110100101011 "
b10100110100101011 "
b10100010100101011 "
b10100010110101011 "
b10100010111101011 "
b10100010111100011 "
b10100010111100111 "
b10100010111100101 "
0;!
1@!
0B!
1Q!
1X!
0D!
0I!
0L!
1S!
0Z!
18!
1V
0C!
1R!
1Y!
0M!
1T!
0[!
1y!
0u!
0s!
1o!
0l!
1k!
1h!
0g!
1d!
1c!
0a!
1!!
0{
0y
1u
0r
1q
1n
0m
1j
1i
0g
13
07
09
1=
0@
1A
1D
0E
1H
1I
0K
#150000
b0 !
02!
0V
#200000
b10100010011100101 "
b10101010011100101 "
b10101010001100101 "
b10101010001100001 "
0@!
0X!
03!
1I!
1V
0{!
0Y!
04!
1z!
1x!
0v!
1u!
0p!
1j!
0h!
1g!
0c!
1a!
0`!
1#!
1"!
1~
0|
1{
0v
1p
0n
1m
0i
1g
0f
11
12
14
06
17
0<
1B
0D
1E
0I
1K
0L
#225000
b10 !
12!
0V
#300000
b10101011001100001 "
b10101011001110001 "
b11101011001110001 "
b11111011001110001 "
b11111111001110001 "
b11111111000110001 "
b11111111000111001 "
b11111111000111011 "
b11110111000111011 "
b11110111000111111 "
b0 !
02!
1;!
1@!
1B!
1G!
0Q!
1=!
1D!
0I!
1L!
1Z!
1V
1{!
1C!
1H!
0R!
1M!
1[!
0z!
0y!
1w!
1v!
0u!
1s!
1r!
0o!
0k!
0j!
1i!
1h!
0g!
0d!
1b!
0#!
0"!
0!!
1}
1|
0{
1y
1x
0u
0q
0p
1o
1n
0m
0j
1h
01
02
03
15
16
07
19
1:
0=
0A
0B
1C
1D
0E
0H
1J
#375000
b10 !
12!
0V
#400000
b11110111000111110 "
b11110111100111110 "
b11110111100101110 "
b11110011100101110 "
b11110011100100110 "
b11110011100100100 "
b11111011100100100 "
b11111011100100000 "
06!
0;!
0@!
0B!
0G!
13!
0D!
1I!
1V
0{!
0C!
0H!
0m!
14!
0x!
0w!
0v!
0r!
1p!
1l!
1k!
1j!
0i!
0h!
1c!
1#!
1s
0~
0}
0|
0x
1v
1r
1q
1p
0o
0n
1i
11
1?
04
05
06
0:
1<
1@
1A
1B
0C
0D
1I
#450000
b0 !
02!
0V
#500000
b11111011100000000 "
b11011011100000000 "
b11011010100000000 "
b10011010100000000 "
b10001010100000000 "
b10001010101000000 "
b10001010001000000 "
b10001010001000010 "
1;!
0N!
1Q!
03!
0=!
0L!
0S!
0Z!
1V
1{!
1R!
1m!
04!
0f!
0M!
0T!
0[!
1z!
1w!
0s!
1r!
1q!
0p!
1n!
0l!
1g!
1e!
1d!
0b!
0a!
1`!
0#!
0s
1l
1"!
1}
0y
1x
1w
0v
1t
0r
1m
1k
1j
0h
0g
1f
01
0?
1F
12
15
09
1:
1;
0<
1>
0@
1E
1G
1H
0J
0K
1L
#525000
b10 !
12!
0V
#600000
b10001010011000010 "
b10001110011000010 "
b10001110011001010 "
b10001110011001110 "
b10101110011001110 "
b11101110011001110 "
b11101110010001110 "
b11101110110001110 "
b11101110110001100 "
b0 !
02!
0;!
1@!
1B!
0Q!
1X!
13!
1D!
1S!
1Z!
1V
0{!
1C!
0R!
1Y!
14!
1f!
1T!
1[!
0z!
1v!
0r!
0q!
0n!
1l!
0k!
0j!
0d!
0c!
1#!
0l
0"!
1|
0x
0w
0t
1r
0q
0p
0j
0i
11
0F
02
16
0:
0;
0>
1@
0A
0B
0H
0I
#675000
b10 !
12!
0V
#700000
b1101110110001100 "
b1101110110011100 "
b1100110110011100 "
b1100110110111100 "
b1110110110111100 "
b1110110100111100 "
b1110010100111100 "
b1110010100110100 "
b1110010100110000 "
b110010100110000 "
b110010000110000 "
0@!
0B!
1G!
1N!
0X!
03!
0D!
0I!
1L!
0Z!
08!
1V
0C!
1H!
0Y!
04!
1M!
0[!
0w!
0v!
1s!
1r!
0l!
1k!
1j!
0e!
1a!
0`!
0}
0|
1y
1x
0r
1q
1p
0k
1g
0f
05
06
19
1:
0@
1A
1B
0G
1K
0L
#750000
b0 !
02!
0V
#800000
b110000000110000 "
b10000000110000 "
b10010000000110000 "
b10010000000010000 "
b10010000010010000 "
b10010000010010100 "
b10010000110010100 "
1@!
0N!
1X!
13!
0?!
0S!
18!
1V
1{!
1Y!
0m!
14!
0T!
1y!
1x!
1u!
0s!
1q!
1l!
1e!
1b!
0a!
0#!
1s
1!!
1~
1{
0y
1w
1r
1k
1h
0g
01
1?
13
14
17
09
1;
1@
1G
1J
0K
#825000
b10 !
12!
0V
#900000
b10010001110010100 "
b10010001111010100 "
b10010001111010110 "
b10010001111000110 "
b10011001111000110 "
b10001001111000110 "
b10001101111000110 "
b11001101111000110 "
b11001111111000110 "
b11101111111000110 "
b1101111111000110 "
b1101111111100110 "
b1101111111100010 "
b0 !
02!
1;!
0@!
0G!
1N!
1Q!
1=!
1?!
1D!
1I!
0L!
1S!
1Z!
08!
1V
0H!
1R!
1m!
0M!
1T!
1[!
1z!
0y!
0x!
1w!
0u!
0r!
0q!
1p!
1o!
0l!
0k!
1i!
1h!
0g!
0b!
1`!
0s
1"!
0!!
0~
1}
0{
0x
0w
1v
1u
0r
0q
1o
1n
0m
0h
1f
0?
12
03
04
15
07
0:
0;
1<
1=
0@
0A
1C
1D
0E
0J
1L
#975000
b10 !
12!
0V
